[{
	"id":1,
	"direccion":"Direccion1",
	"email":"ong1@gmail.com",
	"nombre":"Ong 1",
	"sitioWeb":"wwww.ong1.com",
	"telefono":"099336405"
},
{
	"id":2,
	"direccion":"Direccion2",
	"email":"ong2@gmail.com",
	"nombre":"Ong 2",
	"sitioWeb":"wwww.ong2.com",
	"telefono":"099336405"
},
{
	"id":3,
	"direccion":"Direccion3",
	"email":"ong3@gmail.com",
	"nombre":"Ong 3",
	"sitioWeb":"rewqrewqrewqr",
	"telefono":"099336405"
},
{
	"id":30,
	"direccion":"Yaguaron 1414",
	"email":"alazar@gmail.com",
	"nombre":"Al azar",
	"sitioWeb":"www.alazar.com",
	"telefono":"24181318"
}]